## curl -i http://localhost:5022/api/v1/courses

HTTP/1.1 200 OK
Content-Type: application/json; charset=utf-8
Date: Sat, 18 Jul 2026 07:24:09 GMT
Server: Kestrel
Transfer-Encoding: chunked
X-Correlation-Id: 5e29722d
api-supported-versions: 1.0, 2.0
Deprecation: true
Sunset: Thu, 31 Dec 2026 00:00:00 GMT
Link: <http://localhost:5022/api/v2/courses>; rel="successor-version"

{
    "items":
    [
        {"id":14,"code":"DAT-201","title":"Advanced SQL and Indexing","maxCapacity":26,"enrollmentCount":0},
        {"id":7,"code":"CSE-301","title":"Advanced Web API Patterns","maxCapacity":24,"enrollmentCount":0},
        {"id":9,"code":"CSE-303","title":"Angular Advanced","maxCapacity":24,"enrollmentCount":0},
        {"id":8,"code":"CSE-302","title":"Angular Fundamentals","maxCapacity":26,"enrollmentCount":0},
        {"id":22,"code":"AI-101","title":"Applied Machine Learning","maxCapacity":20,"enrollmentCount":0},
        {"id":4,"code":"CSE-201","title":"ASP.NET Core Fundamentals","maxCapacity":28,"enrollmentCount":0},
        {"id":6,"code":"CSE-203","title":"Building RESTful Web APIs","maxCapacity":28,"enrollmentCount":0},
        {"id":17,"code":"ARC-201","title":"Cloud-Native Architecture","maxCapacity":22,"enrollmentCount":0},
        {"id":19,"code":"DEV-201","title":"Continuous Delivery Pipelines","maxCapacity":22,"enrollmentCount":0},
        {"id":21,"code":"MOB-201","title":"Cross-Platform Mobile","maxCapacity":22,"enrollmentCount":0},
        {"id":15,"code":"DAT-202","title":"Data Modelling for the Web","maxCapacity":26,"enrollmentCount":0},
        {"id":13,"code":"DAT-101","title":"Database Design Foundations","maxCapacity":30,"enrollmentCount":0},
        {"id":25,"code":"UX-201","title":"Design Systems and Tokens","maxCapacity":22,"enrollmentCount":1},
        {"id":18,"code":"DEV-101","title":"DevOps Foundations","maxCapacity":24,"enrollmentCount":0},
        {"id":5,"code":"CSE-202","title":"Entity Framework Core and PostgreSQL","maxCapacity":28,"enrollmentCount":0},
        {"id":10,"code":"CSE-304","title":"Full-Stack Integration","maxCapacity":22,"enrollmentCount":0},
        {"id":23,"code":"AI-201","title":"Generative AI for Developers","maxCapacity":18,"enrollmentCount":18},
        {"id":3,"code":"CSE-103","title":"Git and Collaborative Workflows","maxCapacity":25,"enrollmentCount":0},
        {"id":20,"code":"MOB-101","title":"Mobile App Foundations","maxCapacity":24,"enrollmentCount":0},
        {"id":26,"code":"PRM-101","title":"Project Management","maxCapacity":4,"enrollmentCount":4}
    ],
    "totalCount":26,"page":1,"pageSize":20,"totalPages":2,"hasNext":true,"hasPrevious":false}


## curl -i http://localhost:5022/api/v2/courses

HTTP/1.1 200 OK
Content-Type: application/json; charset=utf-8
Date: Sat, 18 Jul 2026 07:24:42 GMT
Server: Kestrel
Transfer-Encoding: chunked
X-Correlation-Id: 0840a7a6
api-supported-versions: 1.0, 2.0

{
        "data":[
        {"id":14, "title":"Advanced SQL and Indexing", "code":"DAT-201", "maxCapacity":26, "enrollmentCount":0},
        { "id":7, "title":"Advanced Web API Patterns", "code":"CSE-301", "maxCapacity":24, "enrollmentCount":0 },
        { "id":9, "title":"Angular Advanced", "code":"CSE-303", "maxCapacity":24, "enrollmentCount":0 },
        { "id":8, "title":"Angular Fundamentals", "code":"CSE-302", "maxCapacity":26, "enrollmentCount":0 },
        { "id":22, "title":"Applied Machine Learning", "code":"AI-101", "maxCapacity":20, "enrollmentCount":0 },
        { "id":4, "title":"ASP.NET Core Fundamentals", "code":"CSE-201", "maxCapacity":28, "enrollmentCount":0 },
        { "id":6, "title":"Building RESTful Web APIs", "code":"CSE-203", "maxCapacity":28, "enrollmentCount":0 },
        { "id":17, "title":"Cloud-Native Architecture", "code":"ARC-201", "maxCapacity":22, "enrollmentCount":0 },
        { "id":19, "title":"Continuous Delivery Pipelines", "code":"DEV-201", "maxCapacity":22, "enrollmentCount":0 },
        { "id":21, "title":"Cross-Platform Mobile", "code":"MOB-201", "maxCapacity":22, "enrollmentCount":0 },
        { "id":15, "title":"Data Modelling for the Web", "code":"DAT-202", "maxCapacity":26, "enrollmentCount":0 },
        { "id":13, "title":"Database Design Foundations", "code":"DAT-101", "maxCapacity":30, "enrollmentCount":0 },
        { "id":25, "title":"Design Systems and Tokens", "code":"UX-201", "maxCapacity":22, "enrollmentCount":1 },
        { "id":18, "title":"DevOps Foundations", "code":"DEV-101", "maxCapacity":24, "enrollmentCount":0 },
        {
            "id":5, "title":"Entity Framework Core and PostgreSQL", "code":"CSE-202", "maxCapacity":28,
            "enrollmentCount":0
        },
        { "id":10, "title":"Full-Stack Integration", "code":"CSE-304", "maxCapacity":22, "enrollmentCount":0 },
        { "id":23, "title":"Generative AI for Developers", "code":"AI-201", "maxCapacity":18, "enrollmentCount":18 },
        { "id":3, "title":"Git and Collaborative Workflows", "code":"CSE-103", "maxCapacity":25, "enrollmentCount":0 },
        { "id":20, "title":"Mobile App Foundations", "code":"MOB-101", "maxCapacity":24, "enrollmentCount":0 },
        { "id":26, "title":"Project Management", "code":"PRM-101", "maxCapacity":4, "enrollmentCount":4 }],
        
        "meta":{"totalCount":26, "page":1, "pageSize":20, "totalPages":2, "hasNext":true, "hasPrevious":false},
        "links":{"self":"/api/v2/courses?page=1&pageSize=20", "next":"/api/v2/courses?page=2&pageSize=20", "prev":null, "enroll":"/api/v2/enrollments"}
    }